eRah Manual • erah
…
Results and visualization

The identification list can be obtained using:

idList(ex)

## # A tibble: 124 × 18
##    AlignID tmean FoundIn Name.1     MatchFactor.1 DB.Id.1 CAS.1 Formula.1 Name.2
##      <dbl> <dbl>   <dbl> <chr>      <chr>         <chr>   <chr> <chr>     <chr> 
##  1      13  5.79       9 Harmaline… 88.58         "434"   6027… "C16H22N… Dopam…
##  2      17  5.88       9 2-Hydroxy… 87.89         " 25"   142-… ""        4-Hyd…
##  3      16  5.96       9 2-Hydroxy… 99.27         " 25"   142-… ""        4-Hyd…
##  4      25  6.08       9 2'-Deoxya… 59.47         "372"   1637… "C22H45N… 2'-De…
##  5      27  6.18       9 2,3-Bisph… 75.78         "456"   1443… ""        DL-Ho…
##  6      35  6.36       9 DL-2,3-Di… 94.62         "334"   5487… "C18H48N… Oxami…
##  7      39  6.50       9 (R)-(-)-P… 94.10         "322"   61-7… "C18H37N… (-)-E…
##  8      44  6.63       9 Malonic a… 52.87         "252"   141-… "C13H28O… Dihyd…
##  9      45  6.66       9 L-Alanine… 99.11         "335"   56-4… "C12H31N… (R)-(…
## 10      51  6.75       9 L-Alanine… 99.15         "335"   56-4… "C12H31N… (R)-(…
## # ℹ 114 more rows
## # ℹ 9 more variables: MatchFactor.2 <chr>, DB.Id.2 <chr>, CAS.2 <chr>,
## #   Formula.2 <chr>, Name.3 <chr>, MatchFactor.3 <chr>, DB.Id.3 <chr>,
## #   CAS.3 <chr>, Formula.3 <chr>

The alignment list can be returned using:

alignList(ex)

## # A tibble: 124 × 13
##    AlignID Factor     tmean FoundIn `0709_468` `0709_470` `0709_471` `0709_474`
##      <int> <chr>      <dbl>   <dbl>      <dbl>      <dbl>      <dbl>      <dbl>
##  1      13 Factor #13  5.79       9     46805      43277       49578      40353
##  2      17 Factor #17  5.88       9    153248.    197488.     102053     105891
##  3      16 Factor #16  5.96       9    427706     533857      525813     588514
##  4      25 Factor #25  6.08       9     69133      94935       93110      90711
##  5      27 Factor #27  6.18       9    406890     624249.     484318     456469
##  6      35 Factor #35  6.36       9     33943      47453       44354      34835
##  7      39 Factor #39  6.50       9     26594      35572       37724      29419
##  8      44 Factor #44  6.63       9   4549988    4743601     4642613    5242164
##  9      45 Factor #45  6.66       9   3022490    1620110     1544762    1223930
## 10      51 Factor #51  6.75       9    818746     942865      923088     811215
## # ℹ 114 more rows
## # ℹ 5 more variables: `0709_475` <dbl>, `0709_479` <dbl>, `0709_485` <dbl>,
## #   `0709_493` <dbl>, `0709_496` <dbl>

And the final data list can be returned using:

dataList(ex)

## # A tibble: 124 × 27
##    AlignID tmean FoundIn Name.1     MatchFactor.1 DB.Id.1 CAS.1 Formula.1 Name.2
##      <dbl> <dbl>   <dbl> <chr>      <chr>         <chr>   <chr> <chr>     <chr> 
##  1      13  5.79       9 Harmaline… 88.58         "434"   6027… "C16H22N… Dopam…
##  2      16  5.96       9 2-Hydroxy… 99.27         " 25"   142-… ""        4-Hyd…
##  3      17  5.88       9 2-Hydroxy… 87.89         " 25"   142-… ""        4-Hyd…
##  4      25  6.08       9 2'-Deoxya… 59.47         "372"   1637… "C22H45N… 2'-De…
##  5      27  6.18       9 2,3-Bisph… 75.78         "456"   1443… ""        DL-Ho…
##  6      35  6.36       9 DL-2,3-Di… 94.62         "334"   5487… "C18H48N… Oxami…
##  7      39  6.50       9 (R)-(-)-P… 94.10         "322"   61-7… "C18H37N… (-)-E…
##  8      44  6.63       9 Malonic a… 52.87         "252"   141-… "C13H28O… Dihyd…
##  9      45  6.66       9 L-Alanine… 99.11         "335"   56-4… "C12H31N… (R)-(…
## 10      51  6.75       9 L-Alanine… 99.15         "335"   56-4… "C12H31N… (R)-(…
## # ℹ 114 more rows
## # ℹ 18 more variables: MatchFactor.2 <chr>, DB.Id.2 <chr>, CAS.2 <chr>,
## #   Formula.2 <chr>, Name.3 <chr>, MatchFactor.3 <chr>, DB.Id.3 <chr>,
## #   CAS.3 <chr>, Formula.3 <chr>, `0709_468` <dbl>, `0709_470` <dbl>,
## #   `0709_471` <dbl>, `0709_474` <dbl>, `0709_475` <dbl>, `0709_479` <dbl>,
## #   `0709_485` <dbl>, `0709_493` <dbl>, `0709_496` <dbl>
…
